%YAML 1.1
%TAG !u! tag:unity3d.com,2011:
--- !u!114 &11400000
MonoBehaviour:
  m_ObjectHideFlags: 0
  m_CorrespondingSourceObject: {fileID: 0}
  m_PrefabInstance: {fileID: 0}
  m_PrefabAsset: {fileID: 0}
  m_GameObject: {fileID: 0}
  m_Enabled: 1
  m_EditorHideFlags: 0
  m_Script: {fileID: 11500000, guid: cf5309154ef59474bace588f6b4a0f56, type: 3}
  m_Name: AttackData
  m_EditorClassIdentifier: 
  m_AttackDatas:
  - m_AttackName: DefaultAttack
    m_AttackData:
      maxComboCount: 3
      atkMultiplier: 4
